// Jest Snapshot v1, https://goo.gl/fbAQLP

exports[`OrderDetails component should render a OrderDetails component 1`] = `
<div class="ma-2 ma-md-4">
  <div class="container container--fluid">
    <div class="row align-start justify-center">
      <div class="col-12 col-md-6 col">
        <div class="text-left v-card v-sheet theme--light">
          <div class="v-card__text">
            <div class="row">
              <div class="col col-9">
                <div><span class="d-block text-center white--text v-chip theme--light v-size--default blue"><span class="v-chip__content">
    in behandeling
  </span></span></div>
              </div>
              <div class="d-flex justify-center col align-self-center">Bestelling: #123013</div>
            </div>
            <div class="text--primary">Jantje</div>
            <div class="text--primary">Straat123 1</div>
            <div class="text--primary">8011 PK Egmond aan Zee</div>
            <div class="mt-2">
              <div>Besteldatum: 02-03-2007</div>
              <div>
                Verwachte leverdatum:
                01-12-2019
              </div>
              <div>Tijdsindicatie: </div>
            </div>
          </div>
        </div>
        <div class="elevation-1 mt-6">
          <div class="v-data-table theme--light">
            <div class="v-data-table__wrapper">
              <table>
                <colgroup>
                  <col class="">
                  <col class="">
                  <col class="">
                </colgroup>
                <thead class="v-data-table-header">
                  <tr>
                    <th role="columnheader" scope="col" aria-label="Artikelnummer" aria-sort="none" class="text-start"><span>Artikelnummer</span></th>
                    <th role="columnheader" scope="col" aria-label="Artikel" aria-sort="none" class="text-start"><span>Artikel</span></th>
                    <th role="columnheader" scope="col" aria-label="Aantal" aria-sort="none" class="text-start"><span>Aantal</span></th>
                  </tr>
                </thead>
                <tbody>
                  <tr class="">
                    <td class="text-start">1</td>
                    <td class="text-start">Rolstoel</td>
                    <td class="text-start">1</td>
                  </tr>
                  <tr class="">
                    <td class="text-start">2</td>
                    <td class="text-start">krukken</td>
                    <td class="text-start">2</td>
                  </tr>
                </tbody>
              </table>
            </div>
          </div>
        </div>
        <div class="text-center mt-6">
          <router-link-stub class="v-btn v-btn--contained v-btn--router theme--light v-size--default primary"><span class="v-btn__content">Terug naar overzicht</span></router-link-stub>
        </div>
      </div>
      <div class="col-12 col-md-6 col">
        <div class="v-card v-sheet theme--light">
          <div class="mapouter">
            <div class="gmap_canvas"><iframe width="600" height="500" id="gmap_canvas" src="https://maps.google.com/maps?q=8011 PK&amp;t=&amp;z=13&amp;ie=UTF8&amp;iwloc=&amp;output=embed" frameborder="0" scrolling="no" marginheight="0" marginwidth="0"></iframe></div>
          </div>
        </div>
      </div>
    </div>
  </div>
</div>
`;
