// Jest Snapshot v1, https://goo.gl/fbAQLP

exports[`StatusChip component should render a StatusChip component 1`] = `
<div><span class="d-block text-center white--text v-chip theme--light v-size--default blue"><span class="v-chip__content">
    in behandeling
  </span></span></div>
`;
