// Jest Snapshot v1, https://goo.gl/fbAQLP

exports[`LoginPage should render a login page 1`] = `
<v-container-stub tag="div" class="med-login-page">
  <v-row-stub tag="div">
    <v-col-stub cols="12" md="8" offsetmd="2" tag="div">
      <v-img-stub maxwidth="100px" alt="Med logo" options="[object Object]" position="center center" src="/assets/med_header_logo.png" transition="fade-transition"></v-img-stub>
      <h1 class="primary--text display-3 mt-5 mt-md-10">
        Welkom
        <span class="d-none d-sm-inline"> bij Med shop</span></h1>
    </v-col-stub>
  </v-row-stub>
  <med-login-form-stub class="mt-10"></med-login-form-stub>
</v-container-stub>
`;
